{
  "sporttecdb": {
    "host": "localhost",
    "port": 27017,
    "url": "mongodb://localhost:27017/sporttecdb",
    "database": "sporttecdb",
    "password": "",
    "name": "sporttecdb",
    "user": "",
    "connector": "mongodb"
  }
}
